<?xml version="1.0" encoding="utf-8"?>
<!DOCTYPE svg PUBLIC "-//W3C//DTD SVG 1.1//EN" "http://www.w3.org/Graphics/SVG/1.1/DTD/svg11.dtd">
<svg version="1.1" xmlns="http://www.w3.org/2000/svg" xmlns:xlink="http://www.w3.org/1999/xlink" x="0px" y="0px" 
	 viewBox="0 0 634 421.5" enable-background="new 0 0 634 421.5" xml:space="preserve">

<style>
#greenland path 			{ fill: #BF4389; }
#asia-pacific path 			{ fill: #E861AE; }
#the-americas path 			{ fill: #D94B9D; }
#middle-east-africa path 	{ fill: #ED51AA; }
#uk-europe path 			{ fill: #D94B9D; }

.region:hover path {
	fill-opacity: .8 ! important;
    fill: #FFFFFF ! important;
    cursor: pointer;
}
</style>
 
  

<g id="world">
	<g id="greenland">
		<path d="M205.047,125.23c1.286,1.984,3.086,1.984,5.399,0C207.584,123.285,204.313,121.188,205.047,125.23
			C207.819,125.369,205.565,124.501,205.047,125.23z"/>
		<path d="M258.448,108.43c-3.32-0.425-2.722,0.774,1.801,3.6C261.649,110.628,260.477,109.663,258.448,108.43
			C257.847,108.43,259.514,109.078,258.448,108.43z"/>
		<path d="M209.847,133.03c-4.388,2.355-3.971,2.462,1.25,0.323C206.647,132.231,206.231,132.123,209.847,133.03
			C208.35,132.793,209.046,132.834,209.847,133.03z"/>
		<path d="M223.647,163.03c-0.688,0.089-1.199-0.617-1.8,1.2C222.448,163.83,223.047,163.429,223.647,163.03z"/>
		<path d="M264.448,94.03c2.703-3.032-3.18-9.9-4.8-10.8c4.669-0.719,12.735-2.949,3-6.601
			c2,0.064-1.668-14.531,6-22.199c-9.676,6.046,9.525-3.184-6-5.4c8.321-1.188,10.647-4.672,15-11.4
			c-13.102-6.048-15.085,2.447-21,12c3.953-9.601,11.341-20.835-4.8-9c-4.856-8.431,24.061-10.922-9.6-4.8
			c1.916-1.276,8.84-3.367,2.399-5.399c6.894,1.631,12.693-0.169,17.4-5.4c-10.468-2.414-7.715-6.968-24-3.6
			c34.547-11.106,5.17-9.563-6-7.801c8.154,9.515-2.851,1.709,0.6,10.2c-1.711-3.099-4.081-5.562-7.106-7.389
			c-6.702-0.614-4.722,5.572,5.308,11.589c-13.404-6.307-8.399-1.51-8.399,7.8c-1.444-1.443-8.066-10.47-9.966-9.521
			c-1.589,0.794,1.229,10.814,1.565,11.32c-4.469-6.894-6.869-6.493-7.2,1.2c0.961-11.535-13.134-12.187-4.8,2.4
			c-1.836-2.822-4.236-5.022-7.2-6.601c0.005-0.001-3.62,12.458-3.6,12.601c-2.32-8.122-6.287,2.274-7.8,4.2
			c14.435,3.935-2.465,15.403-9.601,20.399c3.296,3.368,7.296,5.167,12,5.4c-3.019,1.006-9.837,1.245-0.6,2.399
			c-10.857,0.776-7.12,3.808-5.274,6.272c0.01,0.013,34.048,3.001,20.874,14.728c5.954-3.968,3.014,16.551,2.396,14.388
			c0.734,2.572,7.196-0.585,7.204-0.587c-3.271,2.173-3.098,2.538,0.521,1.094c-6.645,1.211,9.626,6.263-5.321,4.906
			c7.582,3.157,10.22,7.791,1.801,11.399c9.491-2.711,0.276,1.834,6,3.601c-3.124-0.894-13.379,1.199-0.601,1.199
			c-4.925,0.448-6.514,2.628-5.767,3.973c2.182,3.922,6.954,7.478,6.966,8.027c-1.319-0.135-2.562,0.089-3.729,0.67
			c-1.559-2.154,5.722,16.87,10.929,10.729c-5.097,6.759,5.096-2.559,0,4.2c1.561-2.228,22.866-32.718,22.199-34.2
			c0.676,8.75,15.655-5.455,17.4-7.2c-17.356-3.857-3.741-2.188-12-1.2c0.482-3.421,2.683-5.021,6.6-4.8
			c-4.576,0.827-6.376-0.573-5.399-4.2c3.396,3.678,7.396,6.478,12,8.4c0.813-3.552-8.278-14.865-9.926-13.508
			c1.44-0.435,2.908-0.72,4.404-0.859c-13.789-1.816,2.235-4.664,4.322-3.033c-6.648-2.435-0.555,3.234,1.587,1.633
			c3.464-2.594-2.081-5.936-0.986-1.633c-1.671-4.477-0.07-6.276,4.8-5.399C250.22,87.011,262.823,96.949,264.448,94.03z
			 M234.448,140.83C234.448,139.95,234.448,139.95,234.448,140.83L234.448,140.83z"/>
		<path d="M211.089,133.239c0.586,0.13,1.172,0.26,1.758,0.391C212.168,133.02,211.724,133.318,211.089,133.239z"/>
		<path d="M338.247,71.23c-8.601,1.229-0.079,0.843-4.2,6c3.282-1.92,4.282-1.32,3,1.8
			C344.211,71.868,337.831,74.386,338.247,71.23C336.848,71.43,337.99,73.184,338.247,71.23z"/>
		<path d="M335.247,68.23c-3.641,0.355-3.239,1.157,1.199,2.399C336.047,69.83,335.648,69.03,335.247,68.23
			C331.608,68.586,335.742,68.951,335.247,68.23z"/>
		<path d="M331.047,62.83c-0.238-2.999-7.277-11.962-4.199,2.4c-2.777-10.292-4.178-11.292-4.201-3
			c-2.871-1.778-3.07-3.778-0.6-6c-3.812,0.825-5.476,2.927-4.986,6.305c-0.549-2.24,3.412,8.33,3.787,8.695
			c11.949-15.368,0.165,5.205,6.6-4.2c0.016-0.016-5.897,6.406-4.801,8.4c9.8-3.675-0.28,1.437,0.048,1.106
			c0.779-0.78,3.889,7.132,4.153,7.292C329.947,74.972,337.202,68.103,331.047,62.83C330.653,57.867,332.448,64.03,331.047,62.83z"
			/>
		<path d="M336.448,56.83c-9.55,4.092,3.03,5.884,6.738,1.167c3.794-4.035-5.539-4.799-5.539-7.768
			c-1.271,5.089-10.995-0.385-7.275,5.4C332.567,59.049,336.678,56.807,336.448,56.83C335.047,57.43,333.586,57.116,336.448,56.83z"
			/>
	</g>

	<g id="asia-pacific" class="region" data-url="/locations#asia-pacific" data-label="Asia Pacific">
		<path d="M538.047,213.43c1.644-0.154,3.244,0.046,4.801,0.6c1.797-0.683,3.396-1.683,4.799-3
			c-2.275-1.363-3.664-3.637-7.199-4.8c-0.264,2.108,0.206,4.13-1.687,5.643C534.352,215.397,542.257,216.236,538.047,213.43
			C539.936,212.337,538.557,213.769,538.047,213.43C539.727,212.458,538.647,213.83,538.047,213.43z"/>
		<path d="M546.448,369.43c-1.022,1.182,0.458,6.719,2.308,6.568c1.424-0.116,0.382-2.681,2.492-0.568
			c0.2-1.8,0.4-3.602,0.602-5.4c-0.892,0.403-6.703-0.327-5.724,0.453C546.995,370.572,547.104,370.22,546.448,369.43
			C545.271,370.789,548.016,370.679,546.448,369.43z"/>
		<path d="M560.246,338.829c-7.624-7.624-14.262-16.152-18.601-27c-1.854,3.753-2.191,7.966-3,12
			c-6.688-1.065-9.31-4.305-6-9.6c-2.627,0.037-5.701-0.811-9-1.8c3.585,2.446-4.482,2.062-3.6,7.2c-1.309-1.341-2.309-1.141-3,0.6
			c2.721-4.452-9.869-1.312-7.199,3.6c-0.88-3.501-14.791,11.824-16.801,7.802c-0.602,2.856-0.4,5.655,0.6,8.398
			c-3.275-4.911,1.619,1.106-1.799-0.6c1.412,2.824,3.567,5.725,3.494,9.058c-0.047,2.162-1.572,5.034-0.494,7.144
			c1.514,2.958,10.646,0.244,13.327-0.391c6.642-1.57,8.628-7.329,16.984-4.517c5.464,1.84,3.354,9.836,8.688,1.306
			c-0.226,1.786,0.287,4.414-1.801,5.4c1.729,0.146,2.53-0.653,2.399-2.4c-1.205,4.764,7.293,13.528,11.4,8.4
			c0,4.151,9.081-2.606,9.731-5.173c0.781-3.078,2.644-5.694,3.763-8.636c0.529-1.391,0.567-11.688-0.123-11.252
			C558.834,338.614,559.149,341.214,560.246,338.829C558.323,336.905,558.969,341.603,560.246,338.829z"/>
		<path d="M465.448,264.43c-0.074,1.978,0.266,3.881,1.019,5.712c0.922,3.02-1.505,8.854,1.981,2.688
			c-3.031,4.086,0.362,7.786,3,10.801c-2.3-2.217-0.313,7.454,5.4,7.199c-1.953-1.635-5.528-14.934-9-13.199
			c0.299-1.301,3.5-6.636,2.906-7.592c2.157,3.467,5.124,4.592,9.094,4.592c-3.437-0.336-4.035,0.863-1.801,3.601
			c2.151-2.316,1.524-0.545,2.584-1.251c-0.408,0.271,3.616-3.215,3.735-3.406c2.242-3.561,0.59-6.406-1.899-9.052
			c-3.816-4.054-0.64-9.558-2.021-9.691c2.64-0.588,5.609,0.191,6.601,3c-0.267-1.681,24.793-11.724,19.529-18.266
			c-0.886-0.292-1.796-0.404-2.729-0.333c4.395-1.451,3.994-2.852-1.201-4.2c7.848,2.244,1.936-0.304-0.025-3.806
			c-2.567-4.588,4.043-4.17,5.427-6.994c-1.351-0.458-10.201,1.372-8.352-3.323c0.613-1.557,6.508-4.512,7.751-3.277
			c-1.395,0.804-1.994,2.004-1.801,3.601c3.2-2.2,6.4-4.4,9.602-6.601c-1.554,1.332-4.018,2.42-4.2,4.801
			c-0.172,2.188,4.33,0.818,0.6,3.6c4.527-0.508,3,5.246,3,7.8c3.461-1.729,6.999-5.002,3.301-8.7
			c-3.301-3.301,2.779-6.966,3.67-9.883c2.64-7.957,7.015-4.618,6.83-13.217c-7.086,1.417-4.829-0.377-10.08-3.943
			c-3.954-2.685-3.542-8.235-8.357-10.188c-5.472-2.217-5.948,2.062-6.021,5.784c-0.151,7.725-7.335,1.443-10.784,3.169
			c-1.842,1.128-3.809,1.957-5.9,2.484c-3.839,0.592-4.155-2.708-7.299-2.708c-2.684,0-5.303,0.995-7.221-1.527
			c-0.991-1.305-2.659-3.714-4.62-3.542c-3.583,0.314-1.125,6.25-4.083,6.465c-3.248,0.236-5.782-2.118-9.307-1.284
			c-3.5,0.83-6.553,3.122-9.727,4.689c4.758-1.746-7.123-9.716-9.601-6c-1.67-3.341-5.972-6.143-6-10.2
			c-1.801,0.8-3.6,1.6-5.399,2.399c1.024-3.079-0.561-1.56-2.256-1.437c-2.677,0.192-1.736-3.523-3.538-4.054
			c-2.587-0.762-14.704,2.942-15.807,5.49c1.236-0.013,2.037,0.588,2.4,1.801c-1.438,0.44-2.639,1.24-3.601,2.399
			c7.925,4.736-7.661,3.059-8.776,3.521c-1.202,0.5-11.324-6.624-10.424,2.479c-6.211-4.951-3.075,9.939,1.791,8.312
			c11.024-3.687,1.729,4.161,3.01,4.887c-4.366-0.952,0.777,6.28,1.799,8.4c0.181-3.368,2.871-2.021,3.602,0
			c-5.95-1.82-0.666,5.654-1.8,7.8c3.971-1.191,10.055-2.815,12.6,1.8c1.725,3.129-4.52,10.332,1.2,11.4
			c-2.827,2.107-0.797,3.127,1.078,4.574c3.474,2.681-1.217,4.244-1.68,6.824c6.609-0.473,10.213,2.397,16.201,1.2
			c-11.116,2.78-1.283,2.792-0.601,2.4c-3.797,1.012-3.99,2.23-0.583,3.658c1.7,0.197,3.095-0.422,4.184-1.858
			c-1.285,0.781-0.033,8.188,1.062,10.943c2.287,5.759,3.244,14.814,10.338,12.456c-2.726-0.644,3.754-13.471,5.99-15.918
			c2.498-2.731,5.554-2.905,7.642-5.975c2.404-3.533,3.071,3.738,1.969-5.107c0.237,0.949-0.111,3.945,0.92,4.468
			c0.625-1.17,1.07-1.173,1.338-0.007c0.688-0.987,1.135-2.075,1.342-3.262c-0.229,1.24-0.317,2.485-0.262,3.734
			c2.717-4.655,6.706,7.391,7.461,10.666c3.453-2.877,4.324-0.396,4.33-0.396C464.494,265.899,464.131,262.749,465.448,264.43
			C464.913,268.346,463.757,262.272,465.448,264.43z"/>
		<path d="M434.848,276.43c0.398,2.199,0.799,4.398,1.199,6.6C440.627,282.33,436.893,277.568,434.848,276.43z"/>
		<path d="M487.647,258.43c-1.936-0.538-3.253,0.427-3.6,2.398C486.245,262.06,488.452,260.41,487.647,258.43z"/>
		<path d="M506.848,250.03c-2.301-3.71-3.25,2.751-2.4,4.8C505.246,253.23,506.047,251.63,506.848,250.03z"/>
		<path d="M503.246,309.43c-0.601,0-1.199,0-1.8,0C507.562,312.457,503.697,309.88,503.246,309.43
			C502.647,309.43,503.648,309.829,503.246,309.43z"/>
		<path d="M512.007,309.19c1.279-0.521,2.56-1.04,3.841-1.56c-2.468,0.705-4.973,1.435-6.602,3.6
			C511.218,310.909,512.145,308.994,512.007,309.19C513.393,308.933,511.215,310.321,512.007,309.19z"/>
		<path d="M497.246,307.03c-1.025,1.158-0.825,1.559,0.602,1.2C497.648,307.829,497.448,307.43,497.246,307.03
			C496.221,308.188,497.448,307.43,497.246,307.03z"/>
		<path d="M500.848,307.631c-1.673-0.836-0.871,0.336-3,1.198C502.355,308.999,503.356,308.599,500.848,307.631z"/>
		<path d="M496.047,307.03c-0.601,0-1.199,0-1.801,0C494.791,309.648,496.094,306.983,496.047,307.03
			C495.448,307.03,495.647,307.43,496.047,307.03z"/>
		<path d="M533.848,307.631c1.187-0.677,2.619-0.504,0.6-1.802C534.246,306.43,534.047,307.03,533.848,307.631z"/>
		<path d="M522.448,305.829c-0.283,1.648,0.117,1.648,1.199,0C519.756,305.829,523.35,305.829,522.448,305.829
			C522.163,307.478,522.848,305.829,522.448,305.829z"/>
		<path d="M494.246,307.03c-3.33-2.631-12.529-5.854-16.199-2.399c5.399,1.199,10.801,2.399,16.199,3.601
			C494.246,306.755,494.246,305.993,494.246,307.03C491.245,304.658,494.246,307.43,494.246,307.03z"/>
		<path d="M515.246,298.63c-0.601,0.199-1.199,0.4-1.8,0.601C515.52,300.156,514.975,299.285,515.246,298.63z"/>
		<path d="M521.848,299.829c-1.158-1.947-3.723-2.771-4.801-0.6C518.52,298.378,520.077,299.323,521.848,299.829z"/>
		<path d="M478.647,295.63c-0.909,1.634,0.67,2.438,2.4,3C480.672,297.063,479.845,296.394,478.647,295.63z"/>
		<path d="M506.246,294.43c-0.601,0.398-1.199,0.8-1.8,1.199c-2.166-5.194,9.353-3.249,7.199-5.399
			c-2.227,4.076-5.979-1.021-8.399,4.2c-0.832,1.796-3.041,8.97,1.2,8.398c-0.198-1.594-1.598-4.369,0.601-5.398
			c0.5,1.749,0.623,5.263,3.6,3.6c-2.465-3.943-4.71-4.161,0.602-6.6C506.922,294.428,507.59,294.291,506.246,294.43
			C505.647,294.829,507.23,294.328,506.246,294.43z"/>
		<path d="M517.047,289.63c-1.317,1.955-1.117,3.756,0.6,5.399c-1.465-2.038-1.065-2.837,1.201-2.399
			C517.461,288.977,515.776,294.72,517.047,289.63C515.106,291.354,516.844,290.179,517.047,289.63
			C515.244,291.23,516.779,290.354,517.047,289.63z"/>
		<path d="M478.047,302.23c0.399,0.399,0.8,0.8,1.199,1.2c0.223-1.775,1.352-7.46-2.398-5.4
			c1.061-3.531-2.268-4.337-2.953-4.765c-2.882-1.795-6.158-9.764-12.647-9.636c1.302,5.808,11.692,17.284,16.801,19.801
			C478.047,299.488,478.047,303.638,478.047,302.23C478.448,302.63,478.047,302.63,478.047,302.23z"/>
		<path d="M522.153,237.624c5.312-1.728-3.295-9.537-2.161-3.603C520.313,236.941,522.153,237.624,522.153,237.624z"
			/>
		<path d="M527.848,233.23c0-0.8,0-1.601,0-2.4c-2.039,0.012-2.838,1.012-2.4,3
			C526.182,232.515,527.686,233.273,527.848,233.23C527.848,232.43,526.799,233.506,527.848,233.23z"/>
		<path d="M521.848,231.43c1.812,0.515,3.565,0.348,5.262-0.5c2.114-1.491,3.076-1.125,2.884,1.098
			c1.444-0.403,2.128-1.402,2.055-2.998c1.58,2.767,4.722-0.293,5.399-1.2c-0.328,1.252-0.179,1.667,0.449,1.242
			c1.312-2.53,4.018-10.648,1.939-13.11c0.562,0.667-6.763,8.354-6.59,8.269c-1.396,0.686-2.317,1.779-2.763,3.279
			C528.038,229.609,524.45,229.569,521.848,231.43c1.119,0.505,1.674,0.292,1.662-0.641
			C522.954,231.004,522.402,231.217,521.848,231.43C524.204,232.595,524.568,229.487,521.848,231.43z"/>
		<path d="M496.647,299.23c0.492-1.724,2.586-8.534,5.4-7.8c-4.865-1.375-2.629-7.233,0-7.2
			c-1.845-0.413-3.244-1.413-4.199-3c-1.43,2.859-9.881,6.578-9,9.6C483.288,286.403,487.301,306.606,496.647,299.23
			C497.327,296.845,495.978,299.758,496.647,299.23z"/>
		<path d="M593.848,368.829c-4.129,3.867-7.803,8.406-10.801,13.2c4.894,2.098,13.735-6.565,13.199-12
			C594.065,371.4,593.266,371,593.848,368.829C591.437,371.089,593.848,369.357,593.848,368.829
			C590.073,372.365,593.848,369.43,593.848,368.829z"/>
		<path d="M601.047,363.43c-4.381-0.783-3.134-6.138-7.199-7.8c-0.039,3.247,6.553,8.479,1.199,10.8
			c1.933,0.696,2.2,7.939,4.885,2.748c1.468-2.841,3.158-3.251,3.516-6.35C601.49,363.319,600.375,363.754,601.047,363.43
			C599.428,363.14,601.756,363.089,601.047,363.43z"/>
		<path d="M558.448,302.829c-0.002-0.733-0.004-1.468-0.006-2.202c0.457,0.542-6.027,2.16-6.594,2.202
			c2.26,1.269,7.553,1.993,6.734-2.217C558.423,299.791,556.709,304.084,558.448,302.829
			C558.66,302.083,556.379,304.323,558.448,302.829z"/>
		<path d="M547.647,301.63c-5.036-4.642-12.686-6.836-18.6-2.399c-0.892-2.377-3.969-8.31-6.601-3.601
			c1.401,1.194,3.001,1.595,4.8,1.199c-0.859,1.408-2.06,1.81-3.601,1.2c2.515,1.612,0.809,4.124,3.601,0
			c-1.099,2.2,5.894,3.511,7.099,4.403c3.017,2.234-1.468,6.536,3.702,3.997c-1.064,2.186,9.191,5.015,3,0.6
			c2.69,1.534,4.354-1.889,7.199,0c2.054,1.362,4.832,7.181,7.801,3.602c-1.812,0-7.188-6.001-4.801-6.001
			c-0.107-0.133-4.566-3.659-4.564-3.659C546.404,301.159,547.975,303.138,547.647,301.63
			C542.238,296.646,548.089,303.669,547.647,301.63z"/>
		<path d="M507.448,279.43c-0.2,0.6-0.399,1.199-0.6,1.8c3.927-1.79,6.272,5.244,6-0.601
			c2.606,3.91,1.365-3.014,0-4.199C512.28,279.702,509.225,277.667,507.448,279.43C507.474,279.351,509.761,277.136,507.448,279.43
			C507.246,280.03,509.612,277.284,507.448,279.43z"/>
		<path d="M507.448,275.829c1.225,2.756,1.824,2.355,1.8-1.199C507.923,274.845,507.404,275.877,507.448,275.829
			C507.848,276.43,508.045,275.183,507.448,275.829z"/>
		<path d="M502.647,274.03c-0.765,1.825-2.701,3.302-4.199,4.8C500.119,277.574,503.848,276.171,502.647,274.03z"/>
		<path d="M506.848,272.829c0,0.801,0,1.602,0,2.4c0.611-0.545,1.225-1.09,1.839-1.635
			C508.687,273.404,506.466,272.784,506.848,272.829C506.848,273.63,507.508,272.909,506.848,272.829z"/>
		<path d="M513.448,274.03c-0.623-1.47-0.787-2.456-2.399-2.399C511.207,273.28,512.004,273.636,513.448,274.03z"/>
		<path d="M509.848,272.23c-0.55,0.099-0.825-1.103-1.201,0.6C510.691,273.186,509.75,272.347,509.848,272.23z"/>
		<path d="M503.848,269.829c0.409,0.864,1.223,1.633,1.799,2.4C506.682,270.443,505.698,269.746,503.848,269.829z"/>
		<path d="M503.848,267.43c0.346,0.755,4.199,5.132,4.199,1.8c-2.58-1.938,1.678-5.465-1.396-8.027
			C503.37,258.466,503.255,266.042,503.848,267.43C504.323,268.464,503.531,266.693,503.848,267.43z"/>
		<path d="M508.733,269.744C508.198,269.538,508.733,269.744,508.733,269.744L508.733,269.744z"/>
		<path d="M519.99,234.022c0.337,2.966,2.161,3.603,2.161,3.603"/>
	</g>
	<g id="the-americas" class="region" data-url="/locations#the-americas" data-label="The Americas">
		<path d="M207.417,201.53c0.011-0.035,0.019-0.063,0.031-0.1c-0.013,0.015-0.021,0.022-0.033,0.039
			C207.415,201.488,207.416,201.51,207.417,201.53z"/>
		<path d="M207.417,201.53C206.825,203.365,207.442,203.128,207.417,201.53L207.417,201.53z"/>
		<path d="M203.846,194.23L203.846,194.23c-0.8,0.399-1.6,0.8-2.399,1.2c0.601-1.801,1.2-3.601,1.801-5.4
			c-0.665,0.42-5.892,8.837-6.014,8.072c0.349,2.173,5.606,3.272,7.813,2.128c-1.959,0.784-3.047,4.608,1.2,0
			c-0.7,2.641-0.311,3.049,1.167,1.239c-0.015-0.539-0.099-1.223-0.325-2.029c-0.483-1.721,1.209-4.402-4.442-3.41
			c0.525-0.788,0.914-1.371,1.196-1.795C203.844,194.234,203.845,194.233,203.846,194.23
			C203.529,194.708,203.316,195.028,203.846,194.23C203.847,194.23,203.847,194.23,203.846,194.23L203.846,194.23
			C203.847,194.23,203.847,194.23,203.846,194.23z"/>
		<path d="M203.846,194.23C203.847,194.23,203.847,194.23,203.846,194.23
			C204.322,193.517,205.031,192.454,203.846,194.23z"/>
		<path d="M181.668,401.191c-0.007,0.016-0.015,0.023-0.021,0.039c0.089,0.121,0.172,0.212,0.251,0.284
			c0.016,0.013,0.028,0.021,0.042,0.032c0.065,0.055,0.128,0.097,0.188,0.121c0.002,0.001,0.003,0.002,0.004,0.004
			c0.001,0,0.003,0.001,0.004,0.001c0.005,0.002,0.009,0.004,0.014,0.006c0.808,0.312,0.963-1.966,0.563-1.901
			c-0.437,0.071-0.749,0.173-0.96,0.297c-0.033,0.366-0.067,0.731-0.101,1.099C181.657,401.178,181.663,401.184,181.668,401.191z"/>
		<path d="M190.047,372.43c-0.4,0.398-0.8,0.8-1.2,1.2C190.449,374.021,189.615,373.24,190.047,372.43z"/>
		<path d="M178.598,402.587c-0.1-0.2-0.279-0.45-0.551-0.758l-0.601,1.2c0.179,0.045,0.315,0.072,0.419,0.087
			c0.585,0.098,0.858,0.001,0.816-0.29c0.686,1.192,4.813,1.902-1.235,0.805c3.812,2.542-0.61,0.905-1.8,0.6
			c0.978,0.942,2.524,1.585,4.224,1.896c-0.724,0.069-0.271,0.127,0.359,0.122c-0.208,0.032-0.415,0.064-0.622,0.098
			c-0.503,0.345,2.478,1.902,2.641,2.084c-0.512-1.957-0.755-1.754-0.683-2.104c2.324,0.123,4.677-0.352,6.082-1.497
			c0.045,0.021-3.856-1.696-5.516-3.157c-0.061-0.026-0.124-0.068-0.191-0.125c-0.014-0.012-0.026-0.021-0.042-0.032
			c-0.079-0.073-0.162-0.163-0.251-0.284c0.002-0.02,0.003-0.039,0.005-0.059c-0.333-0.438-0.366-0.824,0.101-1.099
			c0.014-0.148,0.026-0.3,0.041-0.449c-0.66-0.754-1.967-0.297-2.704,0.326c2.651-3.323,5.47-9.787,6.466-12.423
			c0.893-2.359-3.035-4.681-1.181-6.189c0.993-0.5,1.715-1.258,2.166-2.271c0.384-1.229,0.768-2.457,1.152-3.685
			c1.669-1.329,1.527-2.577-0.427-3.746c0.238-2.79,6.18,0.494,5.188-3.926c-0.812-3.611,2.25-2.852,4.811-2.944
			c3.394-0.124,5.008-1.909,3.618-5.279c-0.724-1.758-1.171-3.189-1.387-4.553c0.16,0.372,0.387,0.713,0.717,1.003
			c3.042,2.671,6.22-0.08,7.553-2.745l4.187-5.2c2.285-3.921,5.396-9.763,3.896-9.763c2.412,0,3.687-2.684,5.267-4
			c3.611-3.012,5.912-0.531,8.881-5.404c3.556-5.838-0.496-11.844,4.718-16.676c1.535-1.422,3.512-2.82,3.974-5.01l-0.872-3.765
			c-0.662,0.451-10.666-7.425-15.366-4.746c2.719-5.536-6.867-2.487-8.4-1.199c4.081-6.933-1.96-3.336-2.4,0
			c0.703-3.288-1.321-2.412-3-1.2c1.821-1.818,4.601-5.978,4.449-8.638c-0.046-0.811-2.422,1.325-4.817,1.06
			c0.941-0.099,0.553,0.549,2.169-3.222c-2.497,1.283-5.746-3.719-8.835-2.659c-2.992,1.024,0.481,6.307,1.635,7.459
			c-3.108-1.544-3.891-9.62-4.8-7.8c1.837-3.008-2.871-4.021-4.801-3.602c2.003-3.004-3.578-3.208-0.6-4.199
			c-4.909,1.092-9.932,1.47-13.8-2.399c-0.234,0.6-3.226,4.989-3.158,5.061c-0.526-1.899-0.473-3.787,0.158-5.66
			c-3.033,4.642-13.403,9.345-18.502,5.21c-2.429-1.968-3.136-7.176-0.698-9.409c-3.691-4.396-8.938-0.547-12,2.398
			c4.223,0.431,5.47,3.127,7.472,6.377c0.988,1.605,7.567,3.982,9.329,4.424c-1.316-2.402,7.097-1.873,4.9,5.664
			c-0.922,3.164-4.543,3.868-5.312,6.868c-1.599,6.245,1.668,1.363-0.189,7.867c0-3.88-0.543-0.294-0.576,0.284
			c-0.136,2.397,1.5,4.764,2.719,6.688c4.24,6.692,8.658,12.491,15.257,17.027l0.062,0.562c0.971,8.746-0.86,18.393-2.612,26.929
			c-0.475,2.312-6.293,21.335-1.05,18.71c-1.281,6.409-0.41,8.827-2.4,12c-0.5-2.963-2.545-0.667-3,0.6
			c2.181-0.602,2.967,1.058,1.2,2.4c1.137-0.482,2.137-0.283,3,0.6c-1.554-0.42-2.403,0.131-2.548,1.65
			c-0.419,2.189,0.11,2.555,1.587,1.095c1.039,0.354-0.541,3.242-1.438,3.255c3.148,1.804-1.204,2.124,2.396,4.8
			c-0.221,0.062-0.438,0.141-0.647,0.259c-1.383,2.347-0.166,2.862,3.649,1.543c-2.009,0.854-3.829,1.819-2.399,4.2
			c0.366-0.728,0.512-1.522,0.777-2.183c0.916,1.062,1.383,1.217,2.664-0.219 M173.847,397.628c-0.217-1.583,0.08-1.624,0.892-0.121
			C174.431,397.495,174.136,397.545,173.847,397.628z M175.296,401.288c0.334-0.735,0.871-1.266,2.151-1.259
			C177.037,401.099,176.318,401.512,175.296,401.288z"/>
		<path d="M210.117,351.023c-0.09,0.135-0.174,0.263-0.271,0.407C209.891,351.372,209.987,351.228,210.117,351.023z"
			/>
		<path d="M149.847,151.63c1.938-0.964,2.938-0.363,3,1.801c0.896-0.896,3.178-5.441,5.151-3.842
			c1.349,1.095,1.83,3.724,3.849,1.441c-3.051-0.339-4.492-3.618-6.188-5.975c0.229,0.14,0.129-0.085-1.012-1.226
			c-1.43,1.864-2.029,1.464-1.8-1.2C150.129,145.064,152.704,149.229,149.847,151.63z"/>
		<path d="M185.847,208.63C186.539,208.002,186.558,207.984,185.847,208.63L185.847,208.63z"/>
		<path d="M125.444,124.324c0.01,0.243,0.261,0.411,1.003,0.305c0.236-1.409,0.039-1.811-0.23-1.755
			c-0.64-1.307-2.271-2.034-3.555-2.671c-3.897-1.932-2.648-6.164-3.657-9.865c-0.421-1.543-3.204-7.311-5.157-3.708
			c-1.571,2.896,3.877,5.856,0.6,8.4c-0.622-2.491-0.943-7.661-4.8-7.2c2.978,2.853,2.376,4.051-1.8,3.601
			c1.038-1.218,0.982-2.332-0.167-3.344c-4.101-3.05-2.097,4.887-4.633-3.257c-3.138,1.961-5.344,4.235-6.887,7.624
			c-2.046,4.293,2.456,0.641,0.887,3.776c1.8-0.2,3.6-0.4,5.399-0.601c-2,1-4,2-6,3c2.479,3.844,8.229,2.557,12,3
			c-3.399,0.601-6.8,1.2-10.199,1.801c0.973,3.384,4.918,2.854,6.616,5.441c2.191,3.337,5.642,1.795,9.417-0.86
			c4.734-3.331,2.832,0.573,8.024,0.177c2.661-0.203,3.215-4.074-0.059-0.56C121.719,125.715,124.019,124.899,125.444,124.324z"/>
		<path d="M178.047,121.03c0.288-0.413,0.948-1.221,1.2-1.8C178.847,119.83,178.447,120.43,178.047,121.03z"/>
		<path d="M153.448,102.43c-4.529,1.51-9.604,7.73-8.534,12.921c0.562,2.721,13.221,6.384,6.134-2.122
			c-0.013-1.535-0.158-3.058-0.435-4.565C151.558,106.586,152.503,104.508,153.448,102.43z"/>
		<path d="M194.247,139.03c-0.963-0.963-1.468-1.483-1.722-1.756c-0.016-0.006-0.041-0.02-0.079-0.043
			c-0.8,0.399-1.6,0.8-2.399,1.2c1.308-2.53,0.382-2.581-1.8-2.4c2.636,0-0.49-3.158-0.297-2.969
			c-0.854,0.393-1.556,0.982-2.104,1.77c0.724-1.415-0.476-3.534-1.911-2.764c1.578-1.279,0.621-1.959-2.89-2.036
			c2.547,0-0.123-1.146-0.818-1.453c6.717,2.964-4.171-3.456,4.418-1.547c-1.8-0.4-3.6-0.8-5.399-1.2
			c8.646-2.161,3.248-3.449-0.601-1.8c1.2-1.2,2.4-2.4,3.601-3.6c-1.752,0.25-3.715,0.312-4.783,1.695
			c0.909-2.099,1.798-5.135-2.417-1.695c2.242-3.363,1.104-8.617-1.8-1.801c0.274-1.761,0.408-3.992-0.743-2.052
			c0.299-0.747,0.312-1.489,0.025-2.229c-0.95,0.319-1.773,2.312-2.282,3.081c1.87-3.38,1.729-4.208-1.801-3.601
			c7.617-4.711-3.786-3.062-3.553-2.705c0.494,0.381,1.042,0.641,1.643,0.785c-2.959-0.423-2.365,0.819-0.489,2.521
			c-1.829-0.858-3.028-2.259-3.601-4.2c0.194,1.597-0.405,2.797-1.8,3.6c0.174-0.595,1.913-4.596-0.131-2.839
			c2.053-2.409,0.548-8.475-2.682-7.34c-1.345,0.472-4.513,1.532-3.925,2.583c-0.425,0.012-0.771,0.244-1.029,0.721
			c0.717,0.773,1.506,1.465,2.367,2.076c-6.96-2.986,4.406,2.785-3.499,4.18c0.009-0.042,0.015-0.084,0.018-0.127
			c0.128-0.48-0.078-1.093-0.719,0.147c0.379,0.455,0.604,0.307,0.686,0.045c1.402,0.667,4.242,4.921,1.553,5.426
			c-2.505,0.47-5.166-0.361-7.639-0.671c3.783,5.295,8.728,4.536,15,7.2c-3.904-4.697,1.041-1.77,3.601-1.2
			c-1.126-1.268-1.326-2.668-0.601-4.2c1.93,1.648,6.871,8.216,4.2,10.2c7.517-7.242,5.28,13.715,5.4,13.8
			c-3.5-0.598-4.819-0.054-3.959,1.631c-0.696-0.764-1.564-1.323-2.642-1.631c-1.215,1.951-1.409,4.464,1.2,5.4
			c0.969-2.867,3.291-0.124,3.722-1.168c0.292,0.893,1.044,0.7,2.278-0.631c-2.366,4.347,8.938,8.771,12,10.2
			c0.041-2.197-1.686-3.72-3.269-5.131c0.821,0.241-2.892-5.703,2.669,1.53c-1.357-4.071,1.656,0.458,2.399,1.2
			c-0.71-1.419,0.142-2.453-0.258-3.954c0.771,1.798,0.983,1.404,0.503-0.57c-1.039-4.261-4.188-6.555-6.845-9.876
			c6.69,2.838,0.514,0.763,2.691-1.509c2.734-0.462,0.479,3.739,3.309,0.909c-2.479,3.721,0.79,0.741,1.8,0
			c-2.949,2.111-0.256,4.253,1.2,6c-1.003-2.394,1.316-4.8,3-4.8C190.46,139.705,192.31,139.39,194.247,139.03z"/>
		<path d="M192.527,137.273C192.678,137.329,191.956,136.66,192.527,137.273L192.527,137.273z"/>
		<path d="M134.247,113.83c-1.104-1.258-0.199-2.508-0.301-3.821c0.319,0.415,0.561,0.511-0.3-0.979
			c-1-0.4-2-0.8-3-1.2c0.8-1.6,1.601-3.2,2.4-4.8c-0.55-0.206-7.887-2.184-7.242,0.198c0.313,1.155,2.685,2.083-0.558,1.002
			c2.833,1.103,4.581,7.139-1.2,2.399c-2.22,4.061,3.903,7.723,6,10.2C132.352,113.724,128.001,113.61,134.247,113.83z"/>
		<path d="M144.448,101.83c-0.094-0.026-0.176-0.046-0.268-0.072c0.008-0.235-0.081-0.292-0.306-0.083
			c-12.365-3.33-4.768,5.561-7.827,11.555c2.38,0.483,3.839-2.811,1.8-4.2c2.039,0.38,3.562-0.304,4.573-2.053
			c-0.086,0.146,1.009-2.48,1.513-4.135C144.091,102.598,144.262,102.275,144.448,101.83z"/>
		<path d="M88.869,117.675c0.113,0.112,0.235,0.229,0.378,0.355c3.654-2.437,2.381-4.168,4.708-7.271
			c2.077-2.769,5.315-4.32,7.892-6.528c-4.231-4.938-10.253-4.8-16.2-4.8C90.18,106.684,81.783,110.969,88.869,117.675z"/>
		<path d="M139.047,93.43c-0.4-0.801-0.8-1.601-1.2-2.4c-1.4,1.4-2.8,2.8-4.2,4.2c1.8,0.6,3.601,1.2,5.4,1.8
			C140.997,79.894,139.273,94.302,139.047,93.43z"/>
		<path d="M124.75,85.013c-0.106,0-0.83,1.472-0.703,1.217c0.6,0,1.2,0,1.8,0
			C125.481,85.824,125.115,85.419,124.75,85.013z"/>
		<path d="M128.392,86.747c-0.141,0.162,0.042,0.618,0.282,0.376c0.005-0.006,0.01-0.013,0.015-0.02
			C128.6,86.997,128.5,86.877,128.392,86.747z"/>
		<path d="M128.739,87.037c0.04-0.061,0.077-0.128,0.109-0.208c-0.049-0.034-0.093-0.059-0.134-0.08
			c-0.014-0.006-0.03-0.015-0.041-0.018c0,0-0.001,0-0.002-0.001C128.561,86.699,128.617,86.84,128.739,87.037z"/>
		<path d="M123.964,90.937c-0.372,0.031-0.744,0.062-1.116,0.093C123.263,91.017,123.634,90.985,123.964,90.937z"/>
		<path d="M130.047,90.43c-5.536,3.688,0.409,5.522,1.37,3.373c2.095-4.688,0.991-11.076-4.97-9.373
			c0.862,1.022,1.489,1.771,1.944,2.316c0.049-0.057,0.138-0.075,0.279-0.016c0,0,0.001,0,0.002,0.001
			c0.013,0.006,0.026,0.011,0.041,0.018c0.035,0.018,0.077,0.04,0.134,0.08c-0.036,0.09-0.072,0.155-0.108,0.209
			c0,0,0-0.001-0.001-0.001c-0.016,0.024-0.032,0.044-0.049,0.066c0,0.001,0.001,0.002,0.002,0.003
			c-0.006,0.007-0.012,0.011-0.018,0.017c-0.395,0.486-1.021,0.364-0.936,0.742c-0.813-1.015-1.741-1.09-2.786-0.195
			c1.502,1.861,1.17,2.949-0.989,3.268C125.991,90.768,128.019,90.599,130.047,90.43z"/>
		<path d="M103.047,86.83c-8.521,3.059,5.005-0.002-4.8,4.2c8.461-1.209,2.01,0.769-0.601,2.4c4,0,8,0,12,0
			c-2.2,1.199-4.399,2.399-6.6,3.6c3.104,3.241,9.12,0.837,12.16-1.203c3.108-2.086,3.94-10.493-0.761-5.997
			c0.858-1.17-0.493-5.329-1.199-7.8c-2.118,2.542-3.276,6.966-0.601,9.6c-2.44,0.489-4.935-3.06-6.357-4.477
			C103.404,84.282,98.577,85.712,103.047,86.83z"/>
		<path d="M103.047,86.83C102.262,86.8,101.116,87.523,103.047,86.83L103.047,86.83z"/>
		<path d="M147.448,98.23c1.404,0,10.426,1.208,8.4-2.4c2.419,2.787,4.565,1.505,7.2,0
			c-3.328-2.219-0.027-8.17-7.793-5.781c-6.07,1.868-17.312-3.818-9.006-3.818c-2.748-2.29-4.13-2.647-7.2-0.601
			c2.143-3.889-4.005-6.798-6-3c2.339,1.949,2.061,3.342,4.768,3.14c2.057-0.153,2.574,1.854,2.854,3.455
			C141.628,94.738,147.448,95.965,147.448,98.23z"/>
		<path d="M94.729,86.469c-0.018-0.077-0.042-0.159-0.082-0.238C94.66,86.377,94.69,86.447,94.729,86.469z"/>
		<path d="M94.911,86.69c1.234,1.8,1.266-3.588,2.735-4.661c-1.029,1.82-0.63,3.22,1.2,4.2
			c1.568-1.86,3.183-6.508,1.975-8.843c-2.532-4.896-11.169,8.671-12.175,10.043c1.8,0.6,3.601,1.199,5.4,1.8
			C94.463,87.994,94.737,87.197,94.911,86.69z M94.784,86.469c-0.021,0.008-0.039,0.008-0.057-0.001
			c0.07,0.312-0.017,0.507-0.082-0.238C94.696,86.327,94.739,86.39,94.784,86.469z"/>
		<path d="M131.847,72.43c0.4,0.8,0.8,1.6,1.2,2.399c4.139-3.449,1.165-9.909-2.4-6
			C133.656,72.533,133.189,71.758,131.847,72.43z"/>
		<path d="M119.249,68.829L119.249,68.829c0,0.002,0.001,0.003,0.002,0.006c0.075,0.374,0.377,0.793,0.911,1.262
			c0.006-0.043-0.004-0.076-0.001-0.116c2.782,2.797,10.194,7.016,9.873,1.643c-0.239-3.978-6.845-12.51-11.387-8.794
			c1.2,1.4,2.4,2.8,3.601,4.2C120.085,67.391,119.086,67.991,119.249,68.829z"/>
		<path d="M137.847,57.43c-5.65,4.333,3.962,4.597,6.6,4.8c-2.199,0.8-4.399,1.6-6.6,2.399
			c1.4,1.2,2.8,2.4,4.2,3.601c-1.486-0.444-2.208-0.121-2.165,0.969c3.252,3.748,6.766,4.038,5.165-1.569
			c1.649,5.01,2.175,5.659,1.573,1.949c-0.391-3.146,2.026,1.11,2.026-6.147c1.086,7.601,2.539,1.977,5.199-1.54
			c0.896,1.739,2.337,2.838,4.903,2.313c-2.896,0.808-3.065,2.148-0.501,4.025c-4.349-0.669-7.672-1.711-9,3.6
			c2.061,0.441,3.493-0.234,4.247-1.708c0.175,2.099,4.471,0.345-1.247,3.507c2.868-0.538,2.824,0.298,0.6,1.801
			c1.253-0.021,1.902,0.492,1.948,1.542c0.725-0.564,1.354-1.201,1.903-1.899c-0.341,1.043-0.429,2.16-0.252,3.356
			c-2.25-1.312-2.851-1.312-1.8,0c-2.2-1.4-4.399-2.801-6.6-4.2c1.98,4.457,1.173,6.474-2.4,9.6c4.029,0.383,13.511,3.894,12-1.8
			c1.463,1.464,3.771,2.943,2.4,5.4c2-1.601,4-3.2,6-4.801c-2.548-1.062-6.44-1.279-7.8-4.199c2.671,0,1.549-1.622,0.6-3
			c2.625,1.458,11.083,4.124,6-2.4c1.528,0,7.835-1.077,2.4-1.8c5.708-0.122-1.527-1.109,3.6-4.2c-2.2-1-4.4-2-6.6-3
			c2.399,0,4.8,0,7.199,0c-2-1-4-2-6-3c2.014-0.604,16.701-4.824,11.421-7.689c2.253,0.623,2.646-0.612,1.18-3.71
			c4.296,3.644,8.26-6.57,10.8-10.199c-3.4,1.199-6.8,2.399-10.2,3.6c2.2-1.4,4.4-2.8,6.601-4.2c-1.601-0.8-3.2-1.6-4.801-2.399
			c6.421,0,10.244,0.513,13.281-6.081c1.217-2.645-2.764-5.621-4.193-7.299c-2.508-2.939-5.81,0.846-7.888,1.979
			c1.2-1.4,2.4-2.8,3.601-4.2c-3.271-1.308-14.651-3.438-10.801,3.601c-2.6-1.4-5.199-2.801-7.8-4.2
			c1.423,1.896,5.175,4.799,1.8,7.2c2.224-3.896-12.836-10.696-3.6-3c-1.8-0.601-3.6-1.2-5.4-1.801c1.985,2.53,1.308,4.567-1.8,5.4
			c2,2.4,4,4.8,6,7.2c-2.852-2.35-5.13-5.604-8.551-7.213c-5.593-2.633-2.7,4.688-1.049,6.612c-5.851-2.925-7.785-1.54-12.601,2.4
			c2.801,0.8,5.601,1.6,8.4,2.4c-0.343,0.229-4.155,2.028-5.164,3.463c-0.074,0.037-0.15,0.08-0.236,0.136
			c0.024,0.061,0.047,0.101,0.069,0.157c-0.185,0.433-0.045,0.813,0.61,1.087c0.206,0.218,0.359,0.208,0.453,0.068
			c0.876,0.454,2.039,0.305,3.25-0.104c-0.861,0.396-1.723,0.794-2.583,1.192c4.37,4.369,8.343-0.562,12-3
			c-2.601,2.199-5.2,4.399-7.801,6.6c7.723,2.805,12.959-3.819,17.4-9c-2.719,3.885-7.299,6,0,6
			c-1.396,0.775-4.501,1.307-5.33,2.769c0.532,0.511,1.163,0.698,1.887,0.579c-2.651,0.885-5.305,1.77-7.957,2.652
			c2,2.2,4,4.4,6,6.6c-3.8-2.199-7.6-4.399-11.399-6.6c1.27,1.59,1.224,6.228,2.553,9.334c-2.738-1.794-6.562-7.835-4.353-10.534
			c-5.547,7.176-3.573-10.307-11.4-10.2c4.668,3.45-4.899,3.501,0.6,9c-1.6,0.601-3.199,1.2-4.8,1.801
			c4.975,2.131,3.576,2.764,3.384,3.159c-4.028-2.064-4.757-0.72-2.184,4.04C135.847,58.23,136.847,57.83,137.847,57.43z
			 M152.744,42.431c0.504-0.258,0.955-0.478,1.303-0.603C153.613,42.031,153.178,42.231,152.744,42.431z"/>
		<path d="M176.247,403.631c-0.315-0.154-0.037-0.947-1.2-0.602C175.655,403.889,176.755,403.879,176.247,403.631z"
			/>
		<path d="M171.448,400.03c0.793,0.414,1.601,0.801,2.4,1.2C173.16,400.769,170.229,398.459,171.448,400.03z"/>
		<path d="M171.448,381.43c0.997-0.605,0.189-0.579,0-1.2C171.448,380.631,171.448,381.03,171.448,381.43z"/>
		<path d="M171.448,378.43c0.605,0.997,0.579,0.188,1.2,0C172.247,378.43,171.847,378.43,171.448,378.43z"/>
		<path d="M172.647,371.829c-2.67,5.619-0.354,3.318,0.601,3C173.047,373.829,172.847,372.829,172.647,371.829z"/>
		<path d="M158.637,252.465c-1.567,0.163-2.858,0.853-3.856,2.1c7.438-1.488,10.387,3.953,17.268,3.266
			c-4.4-1.8-8.8-3.6-13.2-5.398C158.752,252.437,158.685,252.449,158.637,252.465z"/>
		<path d="M197.847,395.829c-2.011-0.081-0.995-0.182-2.4,0C194.968,398.39,195.767,398.39,197.847,395.829z"/>
		<path d="M196.647,397.631c1.211-0.241,2.428-0.81,3.601-1.2C198.716,395.577,197.529,396.052,196.647,397.631z"/>
		<path d="M148.047,266.23c-0.605,0.021-1.068-0.08-1.409-0.285c0.525-0.788,1.654-2.481,1.409-2.115
			c0-0.792,0-1.584,0-2.376c1.491-2.264,3.19-4.631,2.1-5.724c-3.786-3.785-7.461,8.138-13.329,5.203
			c-12.481-6.24-0.147-29.761,9.43-19.304c0.574-1.715-0.025-2.516-1.801-2.399c3.887-1.111,6.933-0.26,11.064,1.114
			c1.523,0.506,3.931,9.146,5.242,8.318c5.722-3.606-5.479-15.798,7.692-19.033c-2.455-0.654,2.707-0.795-0.6-3
			c0.735,0.477,1.179,0.435,1.336-0.118c0.093,0.288,0.247,0.728,0.463,1.318c-0.036-1.964-1.036-2.964-3-3
			c2.157-0.094,2.357-0.894,0.601-2.399c2.397,1.199-0.408-1.977,1.8-3c0,1.8,0,3.6,0,5.399c1.755-1.635,1.955-3.436,0.6-5.399
			c2.439,3.659,2.53-2.189,3-3.601c0,2.049,5.562-1.372,6.601-1.2c-5.691-1.907,5.833-6.226,3.6-9
			c1.402,1.534,5.125,1.393,5.4-1.199c1.521,1.521-2.294,1.8,0.6,1.8c-0.604,0.304-3.57,3.555-1.95,3.981
			c1.586,0.415,6.167-3.446,7.95-3.981c-4.953-1.981-6.292-6.205-10.2-6.601c0.6-0.171,4.589-1.635,3.8-2.62
			c-2.522-3.156-9.819,4.038-11.6,5.62c4.281-4.586,7.753-8.701,14.466-9.057c2.85-0.151,16.081-3.675,10.684-6.604
			c1.109,0.602,2.104-2.559,0.163-2.592c-3.003-0.052-2.556-1.228-6.713,0.852c1.709-1.336,3.51-2.536,5.4-3.601
			c-1.847-1.456-3.847-1.854-6-1.199c1.034-3.297-0.958-2.95-3-5.4c3.103,1.035,0.688-5.487-1.2-3.6
			c1.866-1.913,1.666-2.313-0.6-1.2c1.612-0.902-0.061-4.547-1.8-6c-1.187,2.377-1.58,3.127-2.4,6c-1.074-3.223-2.339-0.037-3,1.2
			c0.177-0.98,0.188-1.954,0.033-2.921c-0.079,0.059-0.511,1.414-0.561,1.242c0.325-2.079-0.898-2.52-3.674-1.32
			c2.516-0.957,1.62-3.431-0.229-4.054c3.141-0.077-3.291-8.192-7.193-7.669c-1.492,0.2-5.979-2.833-5.598,0.583
			c0.209,1.876-1.029,7.423,2.222,6.339c-2.104,5.355,0.107,6.138-0.241,11.599c-0.188,2.977-2.943,4.925-5.159,6.401
			c3.242,2.884-0.078,6.349,1.801,9.601c-1.493-1.493-1.672-0.686-1.435,0.396c-0.494-1.361-1.215-1.302-2.167,0.205
			c1.082-1.896-1.05-6.343-1.569-8.153c-1.324-4.603-1.28-3.797-6.229-3.246c1.989-4.112-10.052-7.125-12.6-6
			c1.876-3.649-3.21-6.793-2.4-4.2c-1.528-6.111,0.527-14.448,6-16.8c-1.711-1.516-3.511-2.915-5.4-4.2
			c5.216,2.99,8.69,1.364,12-3.601c-2.6-1.199-5.199-2.399-7.8-3.6c1.589,0.578,13.631,1.486,7.8-2.4c1.801,0.4,3.601,0.801,5.4,1.2
			l-1.2-1.8c0.588-1.174,1.794,0.722,2.799,0.142c3.4-1.963,1.416-6.113,0.201-8.542c4.557-1.242,0.615-0.561,2.4-3
			c-0.941-0.307-5.513-1.161-1.8-2.399c-1.801-0.4-3.601-0.8-5.4-1.2c-0.567,1.905,0.033,3.305,1.8,4.2
			c-4.614,0.859-1.672,7.17-5.399,9c-0.913-3.195,0.609-8.214-3-10.2c-0.601,1.6-1.2,3.2-1.801,4.8c0.353-1.606-2.717-5.399,0-5.399
			c-5.798-1.656-1.984-4.795-4.702-10.77c-3.319-7.293-6.232,7.244-6.098,7.168c1.8,1.2,3.601,2.4,5.4,3.601
			c-3.302,2.349-0.789,2.106,0.073,2.868c-0.551-0.485-3.353,6.299-3.159,7.846c-6.692-3.8,5.348-4.506-5.914-5.915
			c4.992,4.992,2.026,3.7,0,1.8c1.25,2.499-6.291,1.089-7.09,0.93c-3.355-0.667-3.191-3.438-4.933-3.191
			c0.51-0.36,0.61-0.861,0.291-1.507c-1.744-0.212-4.263,1.689-5.668,2.568c0.522,0.163,4.2-0.254,4.2,0.601
			c-4.424-1.062-1.473,6.027-1.2,7.8c-0.666-0.999-3.517-3.041-1.2-4.2c-4.205-3.504-8.601-0.485-13.199-2.4
			c4.829-4.827,0.769-4.324-4.073-6.416c-5.262-2.271-10.903,1.508-10.927-4.384c-0.653,1.377-1.253,2.777-1.801,4.2
			c-1.399-2.2-2.8-4.4-4.199-6.6c3.183,5.142-10.454,5.37-8.4,9.6c-2.345-1.173,5.255-6.517,6-7.2c-2.682,1.073-10.378,2.71-8.4,7.2
			c-4.055-1.707-35.717-14.383-37.199-10.2c1.347-2.595-1.034-3.037-2.896-2.385c-3.244,1.136-1.743,2.823-3.705,4.785
			c0-3.647-11.862,8.077-11.375,8.938c1.278,2.256,4.056,4.893,6.583,6.746c0.071,1.917,1.066,2.894,2.993,2.916
			c-1.8,0.538-3.6,0.538-5.4,0c2.424-2.423-2.031-0.143-2.45,0.073c-3.704,1.907-5.783,1.63-0.55,4.126
			c-2.735,0-1.562,1.591-0.22,2.455c2.696,1.732,6.668,1.019,9.22-0.654c-2.07,1.526,0.594,2.414-0.3,4.2
			c-1.104,2.208-7.068,0.079-6.444,2.938c0.563,2.59-1.644,1.604-2.299,4.013c-0.391,1.438,2.691,3.639,4.243,3.25
			c-8.425,2.378,5.27,1.471,2.4,7.8c3.022-2.562,6.723,0.206,6.292-0.806c1.047,0.504,1.95,0.173,2.708-0.994
			c-2.091,2.907,0.003,4.632-3.553,6.969l-6.436,5.137c4.518,0.021,8.265-2.822,11.313-5.847c1.605-1.643,3.164-3.329,4.675-5.059
			c-3.273-2.183,1.308-5.662,2.978-6.465c-2.015,4.739,1.77,1.237,0.035,4.457c-0.041,0.077,4.534-1.631,5.126-2.167
			c1.942-1.755-1.62-2.133,1.461-4.226c-1.026,3.079,1.167,1.365,2.4,0.6c-0.561,2.195,1.886,2.711,3,1.2
			c-1.525,2.94,4.399,2.756,5.748,2.741c1.404-0.016,2.226,0.167,2.687,0.337c0.343,2.136,2.965,5.042,5.125,4.474
			c0.347-0.688,0.026-1.206-0.959-1.552c3.126,0.577,4.067,5.663,3-1.8c0.208,1.715,5.152,7.077,3,6
			c0.136,0.072,3.166,4.863,2.4,6.6c2.438-3.358,2.134-0.747,1.8,1.2c4.97-4.184-0.269,2.668,3-0.6c-1.324,1.349-2.562,2.746,0,3.6
			c-4.319,0.895,1.385,2.105,2.158,1.647c-0.104,0.601-0.623,0.652-1.558,0.151c1.592,0.807,1.991,2.006,1.199,3.601
			c4.776-3.482,2.345,0.181,0.601,1.8c0.873-0.243,1.743-0.288,2.608-0.136c-0.256,0.513-1.556,0.521-1.988,0.948
			c0.298,0.627,0.891,0.757,1.779,0.388c-4.021,1.341,0.963,1.162,1.801,0c-0.184,0.616-0.583,1.016-1.2,1.2
			c0.946,1.033,1.747,0.834,2.399-0.601c-1.211,2.087,7.499,5.692,3,9.601l-0.625-3.004c0.009,0,0.018,0.004,0.025,0.004
			c-0.008-0.011-0.016-0.021-0.023-0.031c0.019-0.168-0.171-0.437-0.61-0.827c-1.936-2.632-4.072-5.484-7.767-5.142
			c1.717,0.571,2.046,3.104,3.688,3.949c2-0.545,2.835,0.085,2.505,1.892l-0.192,0.159c1.156,1.449,0.402,5.399,3,5.399
			c-7.479,1.354,0.56,19.118,1.979,21.956c0.213,0.427,9.436,14.808,11.822,18.244c2.386,3.436,7.286,10.114,9.6,7.8
			c-2.851-0.559-9.674-13.712-9.6-16.2c3.862,0.419,12.127,13.306,14.714,16.808c1.467,1.986,0.134,4.698,1.532,6.429
			c2.932,3.628,7.883,5.818,12.311,6.862c3.302,0.778,6.392-1.968,8.737,0.653C142.758,269.751,145.266,269.568,148.047,266.23z
			 M20.991,138.014c1.627,1.18,3.138,2.026,4.056,2.215C23.35,140.095,22.001,139.352,20.991,138.014z M60.888,165.103
			C61.028,165.198,60.999,165.232,60.888,165.103L60.888,165.103z M146.259,264.957c0.026-0.153,0.071-0.316,0.126-0.484
			c0.098,0.372,0.242,0.755,0.463,1.157c-0.085,0.128-0.148,0.226-0.209,0.314c-0.146-0.088-0.278-0.19-0.378-0.319L146.259,264.957
			z"/>
		<path d="M176.373,260.962c0.035,0.455,0.173,0.999,0.474,1.668c0.584-0.585,0.975-0.976,1.198-1.197
			c0.001-0.001,0.001-0.001,0.002-0.002l0,0c0.284-0.285,0.288-0.288,0,0c0.621,0.132,3.763-0.355,3.454-0.65
			c-1.59-1.52-4.363-2.169-5.005-0.726c-0.046-0.313-0.145-0.657-0.249-1.024c-5.448-1.716,2.142,1.628-4.801,2.4
			C174.712,261.837,175.98,261.587,176.373,260.962z"/>
		<path d="M184.073,262.023c-0.009,0.002-0.018,0.005-0.025,0.007C184.047,262.11,184.058,262.086,184.073,262.023z"
			/>
		<path d="M184.102,261.886c-0.031,0.035-0.055,0.079-0.055,0.144c0.012-0.003,0.016-0.006,0.027-0.009
			c0,0.001,0,0.001-0.002,0.002c0.793-0.198,1.583-0.396,2.374-0.593c-0.696-0.28-1.394-0.562-2.091-0.843
			C184.306,260.601,184.177,261.485,184.102,261.886z"/>
		<path d="M21.448,180.429L21.448,180.429C22.226,180.17,24.434,179.433,21.448,180.429z"/>
		<path d="M21.448,180.429L21.448,180.429c-0.05-0.192-0.097-0.333-0.139-0.434
			c-0.395-1.033-0.947-0.695-1.662,1.033c0.745-0.248,1.33-0.443,1.796-0.599C21.445,180.43,21.446,180.43,21.448,180.429
			C21.173,180.521,21.076,180.554,21.448,180.429L21.448,180.429L21.448,180.429L21.448,180.429z"/>
		<path d="M20.96,179.455C20.948,179.349,20.906,178.983,20.96,179.455L20.96,179.455z"/>
		<path d="M75.448,181.03c0.2-0.6,0.4-1.2,0.601-1.8C74.533,180.048,75.501,180.349,75.448,181.03z"/>
	</g>
	<g id="middle-east-africa" class="region" data-url="/locations#middle-east-africa" data-label="Middle East &amp; Africa">
		<path d="M382.647,314.23c-0.393,3.756-4.094,5.109-7.315,6.783c-1.634,0.848-2.607,12.32-2.105,14.327
			c1.99,7.96,7.845-3.788,8.754-5.983C384.24,323.893,384.257,319.595,382.647,314.23C382.865,316.01,382.865,316.01,382.647,314.23
			C382.494,315.697,383.247,316.23,382.647,314.23z"/>
		<path d="M286.047,286.03c4.46-1.911,9.428-0.814,13.801-3c-7-0.6-14-1.2-21-1.8
			c0.682,0.744,8.488,5.402,8.003,4.104C286.696,284.917,284.048,284.829,286.047,286.03
			C291.274,283.79,283.613,284.57,286.047,286.03z"/>
		<path d="M397.243,257.754c8.349-0.413-3.922-8.091-2.598-10.725c-3.038,3.039-9.326,2.302-6,6
			c-4.287-5.356-6.372-10.649-13.799-12c2.309-0.201,4.509,0.198,6.6,1.2c-4.823-5.77,3.66-0.35,4.956,1.017
			c3.264,3.438,6.006,1.048,9.196,3.012c2.731,1.684,4.719,2.51,7.937,1.526c4.779-1.459,1.312-4.294,1.44-4.836
			c-0.1,0.418,2.123,1.764,1.07-0.119c-2.789-0.465,1.302,2.326,0,0c-2.652-0.44-4.429-3.438-1.801-5.398
			c-4.376-0.818-1.638-6.504-1.111-9.052c1.414-6.842-8.668-5.105-11.579-3.797c-6.741,3.031-9.501-6.406-12.481-5.11
			c-4.082,1.773-5.965-1.584-4.227,5.358c-2.321,0-21.854-0.632-15.68,7.92c0.977-0.138,1.604-0.778,1.879-1.92
			c-1.215,1.583-3.234,4.217,0.6,4.2c-2.297,0.313-3.475,1.993-2.398-1.8c-1.091,0.935-2.021,2.009-2.786,3.223
			c-2.48,2.528-2.748-1.015-5.019-0.123c-6.043,2.375-12.429-4.538-17.639-1.738c-2.046,1.1-1.468,4.844-4.535,4.011
			c-3.16-0.858-11.512-5.545-13.822-7.773c3.336-1.268,0.608-3.694,1.801-6c-1.059,2.116-17.816-0.104-22.096,4.553
			c-6.027-4.447-7.368,1.078-11.742,4.445c-2.789,2.146-0.653,5.66-3.566,7.801c-3.583,2.632-6.515,5.471-8.605,9.469
			c-1.25,2.391-3.749,19.993,1.609,18.133c-1.511-0.136-2.511,0.465-3,1.8c1.694-1.158,3.494-1.358,5.4-0.6
			c-1.835-0.351-3.484,1.265-5.037,1.169c6.806,0.42-2.763-0.888,0.414,0.95c3.479,2.016,4.194,5.043,6.99,7.777
			c4.622,4.518,12.995,2.285,18.699,2.422c1.371,0.033,15.104,1.096,13.952,2.876c2.839-4.392,5.693,6.338,7.582,5.806
			c-10.229,0.409,4.004,11.584,9,12c-2.4,0-4.801,0-7.201,0c3.845,8.968-1.813,15.366,1.39,24.205
			c3.103,8.562,4.338,19.521,9.323,27.229c3.345,5.169,15.437-1.413,18.324-4.345c5.575-5.66,11.605-15.511,8.765-23.091
			c2.595,1.611,8.284-5.408,9.415-7.088c3.054-4.528-2.066-11.257-1.936-16.105c0.338-12.315,19.452-18.335,21.319-31.407
			c-0.771,0.172-14.579,2.159-14.399,1.801c-0.75-2.233,0.521-3.25-1.338-5.276c0.146,0.159-4.062-4.413-4.062-1.924
			c-1.719-4.585-14.668-23.023-12-28.199c0.801,1.6,1.601,3.198,2.4,4.8c0.691-2.396,1.371-4.796,2.039-7.2
			c-1.023,5.119-0.57,4.742,1.49,9.138c1.281,2.732,4.385,10.588,6.742,12.127c7.78,5.076,1.967,16.818,14.301,10.978
			L397.243,257.754z"/>
		<path d="M386.848,247.63c-1.801-1.295-2-0.494-0.601,2.399C386.713,248.18,386.639,249.224,386.848,247.63
			C386.448,247.43,386.74,248.452,386.848,247.63z"/>
	</g>
	<g id="uk-europe" class="region" data-url="/locations#uk-europe" data-label="UK &amp; Europe">
		<path d="M374.848,219.43c-0.427,0.882,1.613,1.21,2.399,1.8C377.085,219.212,375.49,218.103,374.848,219.43z"/>
		<path d="M353.848,229.03c1.322,1.733,2.565,0.534,3.6-1.2C356.274,228.455,355.114,228.647,353.848,229.03z"/>
		<path d="M317.247,178.63c-2.254-0.499-2.454,0.102-0.602,1.801C318.709,174.236,316.699,180.272,317.247,178.63
			C314.993,178.131,317.047,179.23,317.247,178.63z"/>
		<path d="M317.247,176.23c-2.815-0.869-1.266-2.407-0.602-4.2c-2.451,2.13-6.412,5.985-1.799,9
			c-0.613-2.249,3.072-5.479,1.35-4.796C315.755,176.795,316.105,176.794,317.247,176.23
			C314.295,175.319,315.155,177.06,317.247,176.23z"/>
		<path d="M314.247,215.83c0.392-1.369,0.595-2.785,0.601-4.2C312.958,212.671,312.776,214.262,314.247,215.83z"/>
		<path d="M338.848,229.03c1.6,0,3.199,0,4.799,0C341.874,228.777,340.272,228.124,338.848,229.03z"/>
		<path d="M337.647,221.23c0.971,0.642,2.004,1.202,3,1.8C339.824,221.613,338.944,221.509,337.647,221.23z"/>
		<path d="M275.247,143.83c-1.301-0.104-4.801-7.763-4.801-2.399c-1.96-0.9-3.86-1.188-2.399,1.8
			c-0.916-3.271-1.745-2.341-2.4,0c-1.961-2.943-2.524,0.063-3,1.8c-0.651-1.396-3.993-9.89-2.399-2.4
			c-2.688-2.85-0.704,0.415-3.601,1.2c5.598,0,6.103,1.66,1.2,2.4c4.941,0.015,5.541,1.415,1.8,4.2
			c2.867-1.378,4.969,3.018,7.566,1.6c3.154-1.72,6.526-3.33,8.634-6.4C273.969,145.202,275.529,144.991,275.247,143.83
			C273.067,143.655,275.45,144.669,275.247,143.83C274.064,143.735,275.478,144.781,275.247,143.83z"/>
		<path d="M283.047,190.63c2.65-1.324,5.67-1.711,5.185-5.471c-0.192-1.495,2.806-7.239-2.185-4.729
			c-0.119,0.118-9.034,6.052-2.4,4.8c-0.787,0.804-3.563,2.989,0,1.8C277.86,188.654,283.389,190.852,283.047,190.63
			C284.677,189.815,282.158,190.05,283.047,190.63z"/>
		<path d="M321.448,222.43c-0.6,0.399-1.199,0.8-1.801,1.199c1.602,0.801,3.2,1.601,4.801,2.4
			C325.944,221.506,324.713,221.788,321.448,222.43C320.848,222.83,322.561,222.211,321.448,222.43z"/>
		<path d="M313.047,220.63c2.911,0.382,1.801-2.552,1.801-4.8C311.429,215.741,312.704,218.231,313.047,220.63z"/>
		<path d="M307.047,187.63c0.168-0.505,0.337-1.01,0.506-1.516C306.197,186.15,306.028,186.655,307.047,187.63
			C307.215,187.124,306.848,187.23,307.047,187.63z"/>
		<path d="M307.553,186.114C307.851,185.834,307.833,185.85,307.553,186.114L307.553,186.114z"/>
		<path d="M321.747,140.53C320.43,141.159,321.307,140.74,321.747,140.53L321.747,140.53z"/>
		<path d="M543.448,185.83c-0.399-1.2-0.8-2.399-1.2-3.6c-1.093,6.891-1.82,15.34-1.199,22.8
			c0.495-2.975,1.297-3.175,2.399-0.6c-0.671-1.79-1.089-12.153,2.4-6.601C544.365,193.974,542.842,190.064,543.448,185.83
			c-0.033-0.126-0.23,1.621-0.335,1.855C543.224,187.067,543.336,186.448,543.448,185.83
			C543.085,184.617,542.761,190.633,543.448,185.83z"/>
		<path d="M391.047,118.03c-0.4,0.4-0.8,0.8-1.199,1.2c2.399,0.2,4.799,0.399,7.199,0.6
			c-2.926-4.598-5.527-11.51-1.8-13.2c-3.884-3.181-4.839,0.907-7.2,2.4c2.427,1.213-0.948,3.426-1.019,4.934
			C386.94,115.931,389.809,117.101,391.047,118.03c-0.398,0.399-2.053-1.459-2.141-1.506
			C389.62,117.026,390.334,117.528,391.047,118.03C390.647,118.429,386.108,114.325,391.047,118.03z"/>
		<path d="M544.047,95.23c-1.455-1.455,1.549-2.149,3-3.601c-2.4-1.6-4.801-3.199-7.199-4.8
			c0.609,1.533,0.21,2.733-1.201,3.601c-3.549-7.691-3.824,2.146-6.6,2.399C535.762,96.545,539.233,96.341,544.047,95.23
			c-0.392-0.391-2.472,0.385-2.939,0.572C542.11,95.781,543.089,95.591,544.047,95.23C543.746,94.93,537.444,96.754,544.047,95.23z"
			/>
		<path d="M392.848,103.03c-0.601,0.8-1.201,1.6-1.801,2.4c0.764-0.398,8.233,0.217,4.2-1.801
			c2.525,0.269,2.525-0.333,0-1.8c1.923,1.848,3.536-2.495,2.398-4.2c2.033,1.355,11.003-7.982,14.366-9.835
			c3.07-1.69,5.922-7.076,0.345-5.313c-2.403,0.759-21.946,12.735-16.51,14.549c-4.162,1.984-0.57,2.78-5.4,6
			C398.407,103.03,390.164,103.354,392.848,103.03C392.188,103.785,392.067,103.124,392.848,103.03z"/>
		<path d="M389.848,128.83c0.634-0.176,1.195-0.146,1.799-0.6C391.047,128.43,390.448,128.63,389.848,128.83z"/>
		<path d="M468.448,73.03c3.4-1.6,6.8-3.2,10.199-4.8c-1.949-3.9-1.076-6.123-5.399-2.4
			c2.506-8.761-1.903-3.378-1.768-2.484C472.025,66.919,469.767,69.95,468.448,73.03C471.693,71.503,469.433,70.731,468.448,73.03
			C471.848,71.43,469.594,70.353,468.448,73.03z"/>
		<path d="M469.047,64.63c-1.896-2.565-0.338-5.297,0.6-7.8c-1.799,0.4-3.6,0.8-5.399,1.2
			c1.335-1.367,1.735-2.967,1.2-4.8c-2.801,2-5.6,4-8.399,6C460.603,62.238,463.814,66.125,469.047,64.63
			c-0.405-0.549-3.021-1.707-3.109-0.063C466.805,65.359,467.842,65.38,469.047,64.63C467.116,62.015,463.195,66.302,469.047,64.63z
			"/>
		<path d="M289.647,173.83c-0.6,0.4-1.2,0.8-1.8,1.2c3.052,0,1.446,2.478,1.2,4.2
			c0.115-0.766,0.447-1.376,0.995-1.833c0.854,1.738-0.636,6.104,3.206,3.033c-0.317,3.526-0.333,6.806-3.601,9
			c1.604,1.294,3.205,1.294,4.8,0c-1.285,2.271-4.236,2.394-5.399,4.8c4-1,8-2,12-3c-3.365-1.123-0.096-0.793,0.467-2.712
			c0.209-0.708-3.315-3.883-4.065-4.488c3.708,1.856-4.151-8.15-4.939-6.848c1.133-1.872,1.287-1.774,3.139-4.553
			c-5.529,1.332-6.33,0.132-2.399-3.6c-1.315-0.578-2.31-0.318-2.98,0.779C289.067,172.085,288.586,172.188,289.647,173.83
			C289.047,174.23,289.168,173.089,289.647,173.83z"/>
		<path d="M314.734,152.931c-4.69,1.582-0.766-0.838-1.632,2.212c0.029-0.101-4.947,1.456-5.455,1.287
			c0.41,1.119,1.211,1.52,2.4,1.199c-1.124,0.103-2.02,0.543-2.682,1.323c0.688,0.465,1.702,0.066-0.318,1.077
			c1.682,0.454,3.281,0.253,4.801-0.6c-1.613,2.418-2.713,0.787-4.801,2.399c2.615,1.487-0.799,3.822,3.6,1.2
			c-1.787,1.787-3.258,4.8-0.6,4.8c-4.507,1.503,7.083,4.791,6.6-3c0.992,2.711,2.463,5.207,3.256,8.002
			c1.445,5.1-4.229,4.465-0.854,7.599c1.981-4.674,2.231,0.305,5.941-3.635c5.024-5.336-0.767-6.608,5.459-10.167
			c-1.547,0.818-2.945,0.618-4.2-0.6c2.038,1.466,2.838,1.066,2.398-1.2c0.125,2.733,2.789,1.859,1.166-1.392
			c-1.525-3.059-0.949-6.139-1.166-9.408c6.476,3.65,5.763-17.281,11.988-10.193c2.455,2.793-5.562,8.095-5.279,11.254
			c0.207,2.305,3.062,8.927,2.291,10.341c3.396-1.214,6.773-2.477,10.201-3.601c-0.356,1.783,0.441,2.583,2.399,2.4
			c-2.852,1.981-6.135,0.084-9.066,1.688c-3.207,1.754-1.455,5.353-1.733,8.513c-3.741-6.053-3.625,8.099-9.257,7.13
			c-2.343-0.403-5.392,3.4-7.412,2.188c-1.06-0.636-9.023-3.074-9.73-2.719c1.322,0.661,0.812,2.551,2.4,3.6
			c-3.104-2.067-3.898,1.072-5.281,3.48c1.345-5.296-6.744,0.476-3.352,2.473c-0.532-0.312-3.71,0.452-4.188,0.942
			c-3.481,3.561-2.161,4.679-7.579,3.905c2.245,4.225-1.497,2.669-4.8,3c1.756,2.358,7.013,2.73,6.719,6.516
			c-0.202,2.599-2.89,7.081,1.891,7.046c-3.523-0.568-6.872-1.878-10.453-2.194c-5.479-0.482-6.298,5.387-1.155,4.231
			c-4.938,1.85-3.718,0.706-4.733,6.801c-0.32,1.921,1.583,2.587,0.533,4.6c4.579-2.198,9.213,3.785,14.1-1.801
			c1.589-1.815,5.468-13.251,8.807-13.087c4.591,0.227,7.969-3.019,11.391,1.222c1.967,2.438,11.844,7.089,7.703,11.266
			c4.686-0.033-0.139-4.387,5.399-4.8c-1.461-0.913-14.934-10.935-9.812-12.874c1.808-0.686,4.29,3.588,5.153,4.674
			c1.47,1.472,3.158,2.619,5.067,3.443c2.08,1.166,0.456,4.259,1.992,5.957c0.135-1.658,0.978-2.762,2.523-3.31
			c2.922,0.397,3.547-1.033,1.875-4.291c-0.39,3.521,1.594,4,4.602,4c-10.258,0.855-8.973,5.428-3.601,10.8
			c-0.397-2.239,0.859-2.14-0.602-3.6c2.787,0.93,1.795-0.245,0.523-1.133c-2.539-1.776,1.622-1.703-1.123-4.268
			c0.793,0.529,8.375-1.772,6,0.601c1.467-1.6,3.268-2.198,5.399-1.8c-4.885-7.371,5.753-10.344,4.199-15
			c1.724,1.046,1.724,1.846,0,2.399c4.359-0.166,4.76,0.634,1.201,2.4c3.08,1.488,4.109,1.766,7.199,0
			c-1.272-0.145-2.272-0.744-3-1.8c1.28,3.843-1.101,0.245-1.8-0.601c3.219-0.351,4.392-0.473,8.328-2.592
			c-0.874,1.204-0.45,1.467,1.271,0.792c-5.716,1.921,0.752,2.613-4.801,4.8c2.31,1.617,7.658,9.271,10.801,8.4
			c-3.483,0.536-6.715-0.021-10.133-0.606c-4.41-0.754-9.355,2.615-13.269,1.206c1.344,1.342-4.969,1.884-5.399,4.2
			c3.097-1.033,1.791,1.488,0.6,2.4c3.207,0.377,0.153,3.549,3.602,2.399c-2.906,1.938,12.601,0.229,12.601,2.4
			c2.602-4.694,10.848-2.22,15-2.4c-0.504-2.013,0.276-5.215-1.801-6.6c2.139,0.142,3.738,1.142,4.801,3
			c1.712-1.99,3.111-1.791,4.199,0.6c-0.094-1.809,0.705-3.009,2.399-3.6c-2.098-2.517-4.329-7.642-5.606-8.396
			c-2.229-1.314,3.193-6.584,3.562-5.639c-0.696-1.789-7.225-14.841-0.354-9.367c-0.57-5.771,7.583-6.547,9.6-1.8
			c0-1.967,17.812,0.708,9.601-4.2c0.963-1.159,2.162-1.958,3.602-2.4c-0.363-1.213-1.164-1.812-2.4-1.8
			c1.547-3.581,11.44-4.712,14.935-5.449c3.589,5.074,6.815,4.996,6.666,5.449c1.801-0.8,3.6-1.6,5.399-2.399
			c0.021,3.007,2.761,5.646,4.435,7.831c3.005,3.925,2.279,0.263,6.717,2.497c1.059,0.532,5.224,3.591,5.443,5.357
			c3.601-1.68,7.987-5.505,12.26-4.097c1.422,0.469,6.375,2.312,7.573,0.126c0.735-1.342-0.903-4.42,1.486-4.813
			c3.438-0.563,8.234,4.749,12.336,5.808c5.688,1.469,7.984,1.673,13.506-1.087c2.836-1.418,5.213,2.096,8.111,0.568
			c2.189-1.152,4.494-4.294,3.001-7.178c3.917-6.01,9.786-0.879,10.731,4.104c0.605,3.197,1.593,3.469,4.428,4.724
			c5.305,2.349,1.684,4.416,8.973,2.958c-0.658,2.14-0.338,5.69-2.469,7.114c-2.613,1.745-5.682,2.556-4.131,7.285
			c1.508-3.907,2.836,0.406,5.15-1.307c3.917-2.896,7.045-7.706,9.512-11.849c1.989-3.34,4.85-8.739,3.383-12.756
			c-0.853-2.336-3.188-7.898-6.646-2.89c1.102-2.785,0.52-2.854-1.2-0.6c0.283-2.258-0.717-3.258-3-3
			c3.812-4.193,7.185-12.533,13.452-13.479c4.239-0.639,11.905-2.054,15.947-0.321c-0.85,0.055-1.448,0.455-1.801,1.199
			c2.312-0.189,4.513-0.79,6.602-1.8c-5.227-1.743,6.808-8.726,9-9c-3.352,10.402,1.641-1.056,0,4.8c4.23-3.703,3.811-7.342,9-6.6
			c-1.721-0.084-10.139,12.752-12.371,14.947c-6.952,6.834-4.271,12.438-2.629,21.053c3.033-1.916,9.369-16.116,11.398-15
			c-0.916-1.459-1.922-6.097-1.705-7.22c1.379-7.149,3.699-2.001,6.506-6.58c0,3.175,5.08-2.425,6.601,1.8
			c1.246-1.603,11.906-9.956,11.399-10.8c1.062,0.98,2.283,1.432,3.662,1.351c4.521-2.396-5.141-8.253-7.862-7.951
			c1.368-0.171,6.703,0.668,3-1.8c2.282,0.002,3.723,2.158,5.979,0.467c1.758-1.317,0.258-5.587,3.021-5.86
			c-0.737,3.329,4.896,4.314,7.327,6.771c4.567,4.619,4.021-4.487,4.32-5.656c2.191,0.954,0.036,2.301-0.324,2.229
			c0.545-4.623,0.427,0.085,0,0c0.488-4.146-0.002-6.461-4.723-6.345c1.729,0.966,1.931,2.166,0.6,3.6
			c-0.889-1.628-1.194-3.358-0.921-5.194c-0.718-2.84-4.693-4.002-6.692-5.607c-5.437-4.367-11.333-6.347-18.188-7.204
			c0,2.2,0,4.4,0,6.6c-4.014-2.676-6.947-5.982-12.24-4.262c-5.541,1.802-0.994,2.47-3.959,5.461c0-1.172-1.665-10.061-2.733-11.018
			c-1.961-1.758-5.976-0.351-8.281-0.615c-3.635-0.418-6.939-2.029-9.984-3.967c5.133-2.495-2.602-3.399-6,0
			c-1.855-3.958,8.768-4.424-1.199-3c9.164-2.618-2.952-3.188-6.602-4.2c0.51,2.129-0.291,3.529-2.398,4.2
			c2.742,0-0.635,1.569,1.199,3.6c-2.188-0.661-3.389,0.139-3.6,2.4c-2.5-2.083-8.133-1.696-8.4-4.8c-1,2.199-2,4.399-3,6.6
			c-1.668-2.502-3.58-9.827-7.801-9c0.4,1.8,0.801,3.6,1.201,5.4c-2.395-7.183-5.134-5.092-11.674-7.817
			c-2.106-0.878-10.549-8.899-11.728-2.983c-1.024-7.161-8.571-2.399-4.801-2.399c-3.199,2-6.399,4-9.6,6
			c3.053-3.562,18.291-14.075,12.6-19.8c4.1,6.48-0.391-3.839-1.649-5.569c-1.895-2.605-6.376,0.267-8.55,0.769
			c3.127-4.812-0.161-3.393-4.2-4.199c8.845-5.896-8.89-3.434-3,5.399c-4.807-0.961-6.265-3.447-4.351,2.25
			c-1.799-1.814-5.438-1.471-7.661-1.017c-1.066,0.218-6.864,1.719-1.788,1.767c-4.2,1.8-8.399,3.601-12.6,5.4
			c5.659,1.888-6.873,4.177,0.6,4.8c-4.284,0.242-1,2.07,0.601,3c-5.304,3.641-14.703-0.563-10.933,9.035
			c0.865,2.202,2.666,3.768,3.859,5.762c1.44,2.412-0.729,12.191-0.729,2.604c-0.96,3.931-1.523,4.008-1.691,0.229
			c0.104-1.978,0.867-3.654,2.293-5.03c-6.829-2.927-9.389-0.611-12.602-1.199c1.801,1.8,3.602,3.6,5.399,5.399
			c-10.216-0.773-2.525-6.206-7.199-10.2c0,5.433-5.448,12.246-1.289,17.748c1.44,1.905,3.965,2.315,5.729,3.788
			c3.442,2.874-4.017,4.295,2.76,4.864c-2.561,0.093-5.38-10.521-8.399-3.6c0.662,6.294-2.271,10.19-9,7.199
			c8.907,1.114,5.809-7.326,6.25-13.954c0.22-3.286,0.739-16.533-2.345-16.922c-3.012-0.378-8.34,10.337-6.771,11.838
			c1.57,1.504-0.662,4.288-0.725,5.896c-0.131,3.417,6.354,2.431,2.99,6.542c-3.396-2.613-7.102-5.341-11.075-6.992
			c-2.718-1.128-3.148-0.273-2.597,2.494c0.664,3.328-3.717,4.92-2.527,0.898c-2.934,1.711-6.412,5.455-10.199,3.6
			c1.058-0.724,1.656-1.724,1.8-3c-2.582,0.073-1.804,2.499-3.694,3.489c-1.837,0.964-3.96,0.779-5.905,1.311
			c1.715,1.713-3.377,6.496-6,2.4c5.406-2.651-0.43-4.857-3-6c2.025,1.157,2.035,10.718,1.801,12.6
			c-4.729-3.938-8.164-0.073-6.602,5.4c-0.633-0.09-6.261-2.478-6.299-2.4c-1.213,2.424,3.562,2.138,0.899,4.8
			c-4.805-3.431-5.043-9.348-9-13.8c2.711,1.143,16.667,9.059,15.548,0.684c-0.474-3.542-11.017-14.714-13.748-8.482
			c1.565-2.715-3.068-3.177,0-4.2c-4.902-0.5-4.272-0.162-7.8-1.8c6.757-0.966,2.208-5.952-0.602,0.6
			c1.818-2.733-0.623-2.054,0.556-4.896c-0.599,1.44-4.525,6.104-2.954,0.096c-5.539,9.696-2.406,1.218-1.2,0.601l-11.4,7.8
			c-1.213-1.034-1.965-0.872-2.256,0.489c-1.021,3.709-2.736,1.173-0.867,3.678c-0.208,1.198-0.671,1.088-1.979-0.088l-0.271,0.59
			c0.006,0.61,0.397,1.055,1.176,1.331c-1.207-1.035-2.274-1.022-3.201,0.038c-0.319,3.813,1.951,0.101-0.85,3.184
			c0.119,0.993,0.869,1.119,2.25,0.379c-0.681,0.128-8.257,3.619-3,3.601c-1.663,0.41-3.479,5.04-1.799,4.199
			c-1.801,2.2-3.601,4.4-5.4,6.601 M445.047,104.83c0.241,0.247,1.402,1.439,1.801,2.4
			C446.247,106.43,445.629,105.643,445.047,104.83z"/>
	</g>
</g>
</svg>
